module codeberg.org/librarian/librarian

go 1.16

require (
	github.com/PuerkitoBio/goquery v1.8.0
	github.com/aymerick/raymond v2.0.2+incompatible
	github.com/dustin/go-humanize v1.0.0
	github.com/gofiber/fiber/v2 v2.38.1
	github.com/gofiber/template v1.7.1
	github.com/gorilla/feeds v1.1.1
	github.com/hashicorp/go-retryablehttp v0.7.1
	github.com/klauspost/compress v1.15.11 // indirect
	github.com/microcosm-cc/bluemonday v1.0.21
	github.com/patrickmn/go-cache v2.1.0+incompatible
	github.com/spf13/viper v1.13.0
	github.com/tidwall/gjson v1.14.3
	github.com/yuin/goldmark v1.5.2
	gopkg.in/check.v1 v1.0.0-20201130134442-10cb98267c6c // indirect
)
