{
  "instances": [
    {
      "name": "lbry.bcow.xyz",
      "url": "https://lbry.bcow.xyz",
      "country": "🇳🇱 NL",
      "cloudflare": false,
      "live": true
    },
    {
      "name": "odysee.076.ne.jp",
      "url": "https://odysee.076.ne.jp",
      "country": "🇯🇵 JP",
      "cloudflare": false,
      "live": true
    },
    {
      "name": "librarian.pussthecat.org",
      "url": "https://librarian.pussthecat.org",
      "country": "🇩🇪 DE",
      "cloudflare": false,
      "live": true
    },
    {
      "name": "lbry.projectsegfau.lt",
      "url": "https://lbry.projectsegfau.lt",
      "country": "🇫🇷 FR",
      "cloudflare": false,
      "live": true
    },
    {
      "name": "librarian.esmailelbob.xyz",
      "url": "https://librarian.esmailelbob.xyz",
      "country": "🇨🇦 CA",
      "cloudflare": false,
      "live": false
    },
    {
      "name": "lbry.vern.cc",
      "url": "https://lbry.vern.cc",
      "country": "🇨🇦 CA",
      "cloudflare": false,
      "live": false
    },
    {
      "name": "lbry.slipfox.xyz",
      "url": "https://lbry.slipfox.xyz",
      "country": "🇺🇸 US",
      "cloudflare": false,
      "live": false
    },
    {
      "name": "lbry.sytes.net",
      "url": "https://lbry.sytes.net",
      "country": "🇲🇩 MD",
      "cloudflare": false,
      "live": false
    },
    {
      "name": "lbry.webhop.me",
      "url": "https://lbry.webhop.me",
      "country": "🇨🇿 CZ",
      "cloudflare": false,
      "live": true
    },
    {
      "name": "lbry.mywire.org",
      "url": "https://lbry.mywire.org",
      "country": "🇷🇺 RU",
      "cloudflare": false,
      "live": false
    },
    {
      "name": "librarian.esmail5pdn24shtvieloeedh7ehz3nrwcdivnfhfcedl7gf4kwddhkqd.onion",
      "url": "http://librarian.esmail5pdn24shtvieloeedh7ehz3nrwcdivnfhfcedl7gf4kwddhkqd.onion",
      "country": "",
      "cloudflare": false,
      "live": false
    },
    {
      "name": "lbry.vernccvbvyi5qhfzyqengccj7lkove6bjot2xhh5kajhwvidqafczrad.onion",
      "url": "http://lbry.vernccvbvyi5qhfzyqengccj7lkove6bjot2xhh5kajhwvidqafczrad.onion",
      "country": "",
      "cloudflare": false,
      "live": false
    },
    {
      "name": "5znbzx2xcymhddzekfjib3isgqq4ilcyxa2bsq6vqmnvbtgu4f776lqd.onion",
      "url": "http://5znbzx2xcymhddzekfjib3isgqq4ilcyxa2bsq6vqmnvbtgu4f776lqd.onion/",
      "country": "",
      "cloudflare": false,
      "live": false
    },
    {
      "name": "zjmls4urccc5wxc64ilbv4oqarjab6pbanvmhd2qqt6p7fgqrjjnryqd.onion",
      "url": "http://zjmls4urccc5wxc64ilbv4oqarjab6pbanvmhd2qqt6p7fgqrjjnryqd.onion/",
      "country": "",
      "cloudflare": false,
      "live": true
    },
    {
      "name": "bxewpsswttslepw27w2hhxhlizwm7l7y54x3jw5cfrb64hb6lgc557ad.onion",
      "url": "http://bxewpsswttslepw27w2hhxhlizwm7l7y54x3jw5cfrb64hb6lgc557ad.onion/",
      "country": "",
      "cloudflare": false,
      "live": false
    }
  ]
}
